%YAML 1.1
%TAG !u! tag:unity3d.com,2011:
--- !u!74 &7400000
AnimationClip:
  m_ObjectHideFlags: 0
  m_CorrespondingSourceObject: {fileID: 0}
  m_PrefabInstance: {fileID: 0}
  m_PrefabAsset: {fileID: 0}
  m_Name: Idle
  serializedVersion: 6
  m_Legacy: 0
  m_Compressed: 0
  m_UseHighQualityCurve: 1
  m_RotationCurves: []
  m_CompressedRotationCurves: []
  m_EulerCurves: []
  m_PositionCurves: []
  m_ScaleCurves: []
  m_FloatCurves: []
  m_PPtrCurves:
  - curve:
    - time: 0
      value: {fileID: 21300000, guid: 63f8cf0f823ee8f4dbd12cb246249db4, type: 3}
    - time: 0.05
      value: {fileID: 21300000, guid: 2e695b8fa3512c74e8a9839a2f3837dd, type: 3}
    - time: 0.1
      value: {fileID: 21300000, guid: 99f410930e4acd64eab570f7fd735f30, type: 3}
    - time: 0.15
      value: {fileID: 21300000, guid: f8be43952b3067340b534a27c7e71206, type: 3}
    - time: 0.2
      value: {fileID: 21300000, guid: a5f7d8dfad823f04a83adf2f3c6540b5, type: 3}
    - time: 0.25
      value: {fileID: 21300000, guid: 6002029a7da3e704aa1db463b23cc690, type: 3}
    - time: 0.3
      value: {fileID: 21300000, guid: 75e343023d9e3e142a465b4ab457bbd9, type: 3}
    - time: 0.35
      value: {fileID: 21300000, guid: 4d74189d978741b48bcb18c07de63306, type: 3}
    - time: 0.4
      value: {fileID: 21300000, guid: 0bca46687670b7b4b9f317e4a6469e27, type: 3}
    - time: 0.45
      value: {fileID: 21300000, guid: e03f7c6677745bc4abede9d4eed96507, type: 3}
    - time: 0.5
      value: {fileID: 21300000, guid: 2b80b1ad02dd4404b979550fb425dc9f, type: 3}
    - time: 0.55
      value: {fileID: 21300000, guid: 68fd2633ec6f2054fa835d71fdf98621, type: 3}
    - time: 0.6
      value: {fileID: 21300000, guid: 45d735aa9cbedbd4b849d7dd497fa9b0, type: 3}
    - time: 0.65
      value: {fileID: 21300000, guid: 1451d5d2ec7a8524aa5a020c37d23911, type: 3}
    - time: 0.7
      value: {fileID: 21300000, guid: cfc6242b75b7b8143a555dbf9c017f74, type: 3}
    - time: 0.75
      value: {fileID: 21300000, guid: ae8117c6e9bf4584eb97050409f18972, type: 3}
    - time: 0.8
      value: {fileID: 21300000, guid: 514bef36142a2204a8aee5716caf4cc6, type: 3}
    - time: 0.85
      value: {fileID: 21300000, guid: 24205c1a08a5e884dbdf5e690fbfb4e5, type: 3}
    attribute: m_Sprite
    path: Body
    classID: 212
    script: {fileID: 0}
  m_SampleRate: 20
  m_WrapMode: 0
  m_Bounds:
    m_Center: {x: 0, y: 0, z: 0}
    m_Extent: {x: 0, y: 0, z: 0}
  m_ClipBindingConstant:
    genericBindings:
    - serializedVersion: 2
      path: 2073732236
      attribute: 0
      script: {fileID: 0}
      typeID: 212
      customType: 23
      isPPtrCurve: 1
    pptrCurveMapping:
    - {fileID: 21300000, guid: 63f8cf0f823ee8f4dbd12cb246249db4, type: 3}
    - {fileID: 21300000, guid: 2e695b8fa3512c74e8a9839a2f3837dd, type: 3}
    - {fileID: 21300000, guid: 99f410930e4acd64eab570f7fd735f30, type: 3}
    - {fileID: 21300000, guid: f8be43952b3067340b534a27c7e71206, type: 3}
    - {fileID: 21300000, guid: a5f7d8dfad823f04a83adf2f3c6540b5, type: 3}
    - {fileID: 21300000, guid: 6002029a7da3e704aa1db463b23cc690, type: 3}
    - {fileID: 21300000, guid: 75e343023d9e3e142a465b4ab457bbd9, type: 3}
    - {fileID: 21300000, guid: 4d74189d978741b48bcb18c07de63306, type: 3}
    - {fileID: 21300000, guid: 0bca46687670b7b4b9f317e4a6469e27, type: 3}
    - {fileID: 21300000, guid: e03f7c6677745bc4abede9d4eed96507, type: 3}
    - {fileID: 21300000, guid: 2b80b1ad02dd4404b979550fb425dc9f, type: 3}
    - {fileID: 21300000, guid: 68fd2633ec6f2054fa835d71fdf98621, type: 3}
    - {fileID: 21300000, guid: 45d735aa9cbedbd4b849d7dd497fa9b0, type: 3}
    - {fileID: 21300000, guid: 1451d5d2ec7a8524aa5a020c37d23911, type: 3}
    - {fileID: 21300000, guid: cfc6242b75b7b8143a555dbf9c017f74, type: 3}
    - {fileID: 21300000, guid: ae8117c6e9bf4584eb97050409f18972, type: 3}
    - {fileID: 21300000, guid: 514bef36142a2204a8aee5716caf4cc6, type: 3}
    - {fileID: 21300000, guid: 24205c1a08a5e884dbdf5e690fbfb4e5, type: 3}
  m_AnimationClipSettings:
    serializedVersion: 2
    m_AdditiveReferencePoseClip: {fileID: 0}
    m_AdditiveReferencePoseTime: 0
    m_StartTime: 0
    m_StopTime: 0.90000004
    m_OrientationOffsetY: 0
    m_Level: 0
    m_CycleOffset: 0
    m_HasAdditiveReferencePose: 0
    m_LoopTime: 1
    m_LoopBlend: 0
    m_LoopBlendOrientation: 0
    m_LoopBlendPositionY: 0
    m_LoopBlendPositionXZ: 0
    m_KeepOriginalOrientation: 0
    m_KeepOriginalPositionY: 1
    m_KeepOriginalPositionXZ: 0
    m_HeightFromFeet: 0
    m_Mirror: 0
  m_EditorCurves: []
  m_EulerEditorCurves: []
  m_HasGenericRootTransform: 0
  m_HasMotionFloatCurves: 0
  m_Events: []
